module github.com/zufallsgenerator/gogame

go 1.17

require (
	github.com/faiface/pixel v0.10.0
	github.com/stretchr/testify v1.7.0
	golang.org/x/image v0.0.0-20210628002857-a66eb6448b8d
)

require (
	github.com/davecgh/go-spew v1.1.0 // indirect
	github.com/faiface/glhf v0.0.0-20181018222622-82a6317ac380 // indirect
	github.com/faiface/mainthread v0.0.0-20171120011319-8b78f0a41ae3 // indirect
	github.com/go-gl/gl v0.0.0-20190320180904-bf2b1f2f34d7 // indirect
	github.com/go-gl/glfw/v3.3/glfw v0.0.0-20191125211704-12ad95a8df72 // indirect
	github.com/go-gl/mathgl v0.0.0-20190416160123-c4601bc793c7 // indirect
	github.com/pkg/errors v0.8.1 // indirect
	github.com/pmezard/go-difflib v1.0.0 // indirect
	gopkg.in/yaml.v3 v3.0.0-20200313102051-9f266ea9e77c // indirect
)
