{
  "walk": {
  "east": {
    "comment": "Walking east",
    "scale": 2,
    "frames": [
      "gfx/blob/slimeblob11.png",
      "gfx/blob/slimeblob12.png"
    ]
  },
  "west": {
    "scale": 2,
    "frames": [
      "gfx/blob/slimeblob9.png",
      "gfx/blob/slimeblob10.png"
    ]
  },
  "north": {
    "scale": 2,
    "frames": [
      "gfx/blob/slimeblob5.png",
      "gfx/blob/slimeblob6.png",
      "gfx/blob/slimeblob7.png",
      "gfx/blob/slimeblob8.png"
    ]
  },
  "south": {
    "scale": 2,
    "frames": [
      "gfx/blob/slimeblob1.png",
      "gfx/blob/slimeblob2.png",
      "gfx/blob/slimeblob3.png",
      "gfx/blob/slimeblob4.png"

    ]
  }
}


}
