{
  "walkeast": {
    "comment": "Walking east",
    "frames": [
      "gfx/thief/walking e0000.bmp.gif",
      "gfx/thief/walking e0001.bmp.gif",
      "gfx/thief/walking e0002.bmp.gif",
      "gfx/thief/walking e0003.bmp.gif",
      "gfx/thief/walking e0004.bmp.gif",
      "gfx/thief/walking e0005.bmp.gif",
      "gfx/thief/walking e0006.bmp.gif",
      "gfx/thief/walking e0007.bmp.gif"
    ]
  },
  "walkwest": {
    "frames": [
      "gfx/thief/walking w0000.bmp.gif",
      "gfx/thief/walking w0001.bmp.gif",
      "gfx/thief/walking w0002.bmp.gif",
      "gfx/thief/walking w0003.bmp.gif",
      "gfx/thief/walking w0004.bmp.gif",
      "gfx/thief/walking w0005.bmp.gif",
      "gfx/thief/walking w0006.bmp.gif",
      "gfx/thief/walking w0007.bmp.gif"
    ]
  },
  "walkwest": {
    "frames": [
      "gfx/thief/walking w0000.bmp.gif",
      "gfx/thief/walking w0001.bmp.gif",
      "gfx/thief/walking w0002.bmp.gif",
      "gfx/thief/walking w0003.bmp.gif",
      "gfx/thief/walking w0004.bmp.gif",
      "gfx/thief/walking w0005.bmp.gif",
      "gfx/thief/walking w0006.bmp.gif",
      "gfx/thief/walking w0007.bmp.gif"
    ]
  },
  "walknorth": {
    "frames": [
      "gfx/thief/walking n0000.bmp.gif",
      "gfx/thief/walking n0001.bmp.gif",
      "gfx/thief/walking n0002.bmp.gif",
      "gfx/thief/walking n0003.bmp.gif",
      "gfx/thief/walking n0004.bmp.gif",
      "gfx/thief/walking n0005.bmp.gif",
      "gfx/thief/walking n0006.bmp.gif",
      "gfx/thief/walking n0007.bmp.gif"
    ]
  },
  "walksouth": {
    "frames": [
      "gfx/thief/walking s0000.bmp.gif",
      "gfx/thief/walking s0001.bmp.gif",
      "gfx/thief/walking s0002.bmp.gif",
      "gfx/thief/walking s0003.bmp.gif",
      "gfx/thief/walking s0004.bmp.gif",
      "gfx/thief/walking s0005.bmp.gif",
      "gfx/thief/walking s0006.bmp.gif",
      "gfx/thief/walking s0007.bmp.gif"
    ]
  }


}
